<?xml version="1.0" encoding="UTF-8" standalone="no"?>
<svg width="183px" height="183px" viewBox="0 0 183 183" version="1.1" xmlns="http://www.w3.org/2000/svg" xmlns:xlink="http://www.w3.org/1999/xlink">
    <!-- Generator: Sketch 3.7.2 (28276) - http://www.bohemiancoding.com/sketch -->
    <title>export</title>
    <desc>Created with Sketch.</desc>
    <defs></defs>
    <g id="Page-1" stroke="none" stroke-width="1" fill="none" fill-rule="evenodd">
        <g id="F_icon">
            <g id="Layer_1">
                <path d="M172.459483,182.510351 C178.008834,182.510351 182.508938,178.010247 182.508938,172.459483 L182.508938,10.4656216 C182.508938,4.91415058 178.009541,0.415459459 172.459483,0.415459459 L10.4656216,0.415459459 C4.91415058,0.415459459 0.415459459,4.91415058 0.415459459,10.4656216 L0.415459459,172.459483 C0.415459459,178.009541 4.91344402,182.510351 10.4656216,182.510351 L172.459483,182.510351 L172.459483,182.510351 Z" id="Blue_1_" fill="#3C5A99"></path>
                <path d="M126.057324,182.510351 L126.057324,111.993174 L149.726502,111.993174 L153.270625,84.5113784 L126.057324,84.5113784 L126.057324,66.9659884 C126.057324,59.0093745 128.266749,53.5872046 139.67634,53.5872046 L154.228726,53.5808456 L154.228726,29.0009073 C151.711946,28.6659961 143.073498,27.9177452 133.023336,27.9177452 C112.041927,27.9177452 97.6774865,40.7249189 97.6774865,64.244305 L97.6774865,84.5113784 L73.9475444,84.5113784 L73.9475444,111.993174 L97.6774865,111.993174 L97.6774865,182.510351 L126.057324,182.510351 L126.057324,182.510351 Z" id="f" fill="#FFFFFF"></path>
            </g>
        </g>
    </g>
</svg>