<?xml version="1.0" encoding="UTF-8" standalone="no"?>
<svg width="85px" height="95px" viewBox="0 0 85 95" version="1.1" xmlns="http://www.w3.org/2000/svg" xmlns:xlink="http://www.w3.org/1999/xlink" xmlns:sketch="http://www.bohemiancoding.com/sketch/ns">
    <!-- Generator: Sketch 3.4.4 (17249) - http://www.bohemiancoding.com/sketch -->
    <title>picto-e-commerce</title>
    <desc>Created with Sketch.</desc>
    <defs></defs>
    <g id="Page-1" stroke="none" stroke-width="1" fill="none" fill-rule="evenodd" sketch:type="MSPage">
        <g id="picto-e-commerce" sketch:type="MSLayerGroup" fill="#5E5795">
            <path d="M46.472388,1.78872848 C44.058441,0.399271523 41.083155,0.399271523 38.667336,1.78872848 L4.793408,21.2865695 C2.378213,22.6772715 0.890882,25.2463974 0.890882,28.0259338 L0.892131,67.0209934 C0.890882,69.8011523 2.378213,72.3702781 4.794032,73.7603576 L38.667336,93.2575762 C41.081907,94.6476556 44.057193,94.6476556 46.472388,93.2575762 L80.346316,73.7603576 C82.760887,72.3690331 84.248842,69.8005298 84.248842,67.0209934 L84.248842,28.0259338 C84.248842,25.2451523 82.760887,22.6760265 80.346316,21.2865695 L46.472388,1.78872848 Z" id="Fill-1" sketch:type="MSShapeGroup"></path>
        </g>
    </g>
</svg>