<?xml version="1.0" encoding="UTF-8" standalone="no"?>
<svg width="85px" height="95px" viewBox="0 0 85 95" version="1.1" xmlns="http://www.w3.org/2000/svg" xmlns:xlink="http://www.w3.org/1999/xlink" xmlns:sketch="http://www.bohemiancoding.com/sketch/ns">
    <!-- Generator: Sketch 3.4.4 (17249) - http://www.bohemiancoding.com/sketch -->
    <title>picto-actus-wp</title>
    <desc>Created with Sketch.</desc>
    <defs></defs>
    <g id="Page-1" stroke="none" stroke-width="1" fill="none" fill-rule="evenodd" sketch:type="MSPage">
        <g id="picto-actus-wp" sketch:type="MSLayerGroup" fill="#468F88">
            <path d="M80.2681125,21.2865695 L46.3941849,1.78872848 C43.9808627,0.399271523 41.0049523,0.399271523 38.5891325,1.78872848 L4.71520496,21.2865695 C2.30063394,22.6772715 0.812678742,25.2463974 0.812678742,28.0259338 L0.81392755,67.0209934 C0.812678742,69.8011523 2.30063394,72.3702781 4.71645377,73.7603576 L38.5891325,93.2575762 C41.0037035,94.6476556 43.9796139,94.6476556 46.3941849,93.2575762 L80.2681125,73.7603576 C82.6826835,72.3690331 84.1706387,69.8005298 84.1706387,67.0209934 L84.1706387,28.0259338 C84.1706387,25.2451523 82.6826835,22.6760265 80.2681125,21.2865695" id="Fill-7" sketch:type="MSShapeGroup"></path>
        </g>
    </g>
</svg>