<?xml version="1.0" encoding="UTF-8" standalone="no"?>
<svg width="85px" height="95px" viewBox="0 0 85 95" version="1.1" xmlns="http://www.w3.org/2000/svg" xmlns:xlink="http://www.w3.org/1999/xlink" xmlns:sketch="http://www.bohemiancoding.com/sketch/ns">
    <!-- Generator: Sketch 3.4.4 (17249) - http://www.bohemiancoding.com/sketch -->
    <title>Fill-1 + Shape</title>
    <desc>Created with Sketch.</desc>
    <defs></defs>
    <g id="Page-1" stroke="none" stroke-width="1" fill="none" fill-rule="evenodd" sketch:type="MSPage">
        <g id="Fill-1-+-Shape" sketch:type="MSLayerGroup">
            <path d="M80.346316,21.2865695 L46.472388,1.78872848 C44.058441,0.399271523 41.083155,0.399271523 38.667336,1.78872848 L4.793408,21.2865695 C2.378213,22.6772715 0.890882,25.2463974 0.890882,28.0259338 L0.892131,67.0209934 C0.890882,69.8011523 2.378213,72.3702781 4.794032,73.7603576 L38.667336,93.2575762 C41.081907,94.6476556 44.057193,94.6476556 46.472388,93.2575762 L80.346316,73.7603576 C82.760887,72.3690331 84.248842,69.8005298 84.248842,67.0209934 L84.248842,28.0259338 C84.248842,25.2451523 82.760887,22.6760265 80.346316,21.2865695" id="Fill-1" fill="#4D758E" sketch:type="MSShapeGroup"></path>
            <path d="M16.4806542,72.8064417 C15.9061862,72.8064417 15.3955479,72.2958034 15.3955479,71.7213353 L15.3955479,61.9553778 C16.9912925,61.8277183 18.4593776,61.1894204 19.6083138,60.0404842 L25.0976755,54.5511225 L25.0976755,71.7213353 C25.0976755,72.2958034 24.5870372,72.8064417 24.0125691,72.8064417 L16.4806542,72.8064417 L16.4806542,72.8064417 Z M37.544484,72.8064417 C38.1189521,72.8064417 38.6295904,72.2958034 38.6295904,71.7213353 L38.6295904,61.5085693 C36.9061862,61.4447395 35.3104415,60.8064417 34.0976755,59.5936757 L28.9274628,54.4234629 L28.9274628,71.7213353 C28.9274628,72.2958034 29.4381011,72.8064417 30.0125691,72.8064417 L37.544484,72.8064417 L37.544484,72.8064417 Z M51.0125691,72.8064417 C51.5870372,72.8064417 52.0976755,72.2958034 52.0976755,71.7213353 L52.0976755,50.9128246 L43.4168245,59.5936757 C43.0976755,59.9128246 42.7146968,60.2319736 42.3317181,60.4872927 L42.3317181,71.7213353 C42.3317181,72.2958034 42.8423564,72.8064417 43.4168245,72.8064417 L51.0125691,72.8064417 L51.0125691,72.8064417 Z M64.4806542,72.8064417 C65.0551223,72.8064417 65.5657606,72.2958034 65.5657606,71.7213353 L65.5657606,38.8489949 C65.3104415,38.6575055 65.1189521,38.4660161 64.9912925,38.3383566 L64.863633,38.210697 L55.863633,47.1468672 L55.863633,71.7213353 C55.863633,72.2958034 56.3742713,72.8064417 56.9487393,72.8064417 L64.4806542,72.8064417 L64.4806542,72.8064417 Z M29.1827819,39.8702714 C28.6083138,39.2958034 27.8423564,38.9766544 27.0125691,38.9766544 C26.1827819,38.9766544 25.4168245,39.2958034 24.8423564,39.8702714 L12.2040585,52.5723991 C10.9912925,53.7851651 10.9912925,55.7000587 12.2040585,56.8489949 L12.7785266,57.4234629 C13.3529947,58.0617608 14.1189521,58.3809097 14.9487393,58.3809097 C15.7785266,58.3809097 16.544484,58.0617608 17.1189521,57.4872927 L27.0763989,47.5298459 L36.650867,57.104314 C37.2253351,57.6787821 37.9912925,57.997931 38.8210798,57.997931 C39.650867,57.997931 40.4168245,57.6787821 40.9912925,57.104314 L64.9274628,33.1681438 C64.9912925,33.2319736 65.0551223,33.2958034 65.1189521,33.3596332 C65.6934202,33.9341012 66.3317181,34.5723991 66.9061862,35.1468672 L67.6721436,35.9128246 C67.9912925,36.2319736 68.4381011,36.6787821 69.1402287,36.6787821 C69.3955479,36.6787821 69.7146968,36.6149523 70.0338457,36.4234629 C70.2253351,36.2958034 70.4168245,36.1681438 70.544484,36.0404842 C71.0551223,35.5298459 71.1827819,34.8277183 71.1827819,34.31708 C71.3104415,32.0192076 71.3742713,29.7851651 71.5019308,27.4872927 L71.6934202,24.0404842 C71.75725,23.2745268 71.5657606,22.7638885 71.1827819,22.3809097 C70.7998032,21.997931 70.2891649,21.8064417 69.5870372,21.8064417 L69.3955479,21.8064417 C65.8849096,21.997931 62.3742713,22.1255906 58.863633,22.31708 C58.4168245,22.31708 57.7785266,22.3809097 57.2678883,22.891548 C57.1402287,23.0192076 57.0125691,23.210697 56.8849096,23.4660161 C56.3742713,24.6149523 57.0763989,25.31708 57.4593776,25.7000587 L58.3529947,26.5936757 C58.9912925,27.2319736 59.5657606,27.8064417 60.2040585,28.4447395 L38.75725,49.4447395 L29.1827819,39.8702714 L29.1827819,39.8702714 Z" id="Shape" fill="#FFFFFF" sketch:type="MSShapeGroup"></path>
        </g>
    </g>
</svg>