<?xml version="1.0" encoding="UTF-8" standalone="no"?>
<svg width="84px" height="95px" viewBox="0 0 84 95" version="1.1" xmlns="http://www.w3.org/2000/svg" xmlns:xlink="http://www.w3.org/1999/xlink" xmlns:sketch="http://www.bohemiancoding.com/sketch/ns">
    <!-- Generator: Sketch 3.4.4 (17249) - http://www.bohemiancoding.com/sketch -->
    <title>picto-tutos</title>
    <desc>Created with Sketch.</desc>
    <defs></defs>
    <g id="Page-1" stroke="none" stroke-width="1" fill="none" fill-rule="evenodd" sketch:type="MSPage">
        <g id="picto-tutos" sketch:type="MSLayerGroup">
            <path d="M79.805653,21.2865695 L45.932974,1.78872848 C43.517779,0.398649007 40.542493,0.398649007 38.127922,1.78872848 L4.253994,21.2865695 C1.838799,22.676649 0.351468,25.2457748 0.351468,28.0259338 L0.351468,67.0209934 C0.351468,69.8005298 1.838799,72.3702781 4.253994,73.7603576 L38.127922,93.2575762 C40.542493,94.6476556 43.517154,94.6476556 45.932974,93.2575762 L79.806902,73.7597351 C82.221473,72.3690331 83.709428,69.8005298 83.709428,67.0209934 L83.708179,28.0259338 C83.709428,25.2451523 82.221473,22.6760265 79.805653,21.2865695" id="Fill-9" fill="#EE9E6A" sketch:type="MSShapeGroup"></path>
            <path d="M41.791301,56.704649 C41.683904,56.704649 41.576506,56.6822384 41.472855,56.6405298 L25.636092,49.878755 L25.636092,59.8527152 C25.636092,59.8527152 32.028742,67.2799603 41.930543,67.2980132 L41.930543,67.2992583 C41.936163,67.2992583 41.943656,67.2980132 41.948651,67.2980132 C41.948651,67.2980132 41.958642,67.2992583 41.964261,67.2992583 L41.964261,67.2980132 C51.867312,67.2799603 58.258713,59.8527152 58.258713,59.8527152 L58.258713,49.9080132 L42.103503,56.6442649 C42.006096,56.684106 41.898699,56.704649 41.791301,56.704649" id="Fill-10" fill="#FFFFFF" sketch:type="MSShapeGroup"></path>
            <path d="M40.914638,44.0221192 C34.715553,43.2894172 27.216459,42.5137616 23.855291,46.5408212 L25.636092,47.3345298 L25.636092,47.3363974 L41.796296,54.2345033 L41.797545,54.2332583 L41.797545,54.2345033 L73.338699,41.0857086 L41.992359,27.7482914 L10.559852,40.8970861 L20.654595,45.2061457 C20.04705,45.988649 18.853189,48.4208212 18.415481,49.3589536 C17.681182,49.4822119 17.112974,50.087298 17.112974,50.8548609 C17.112974,51.4008079 17.413937,51.8583576 17.843527,52.1335099 L17.792326,52.1335099 L16.602836,59.7107815 L20.588408,59.7107815 L19.536911,52.1335099 L19.486959,52.1335099 C19.917798,51.8583576 20.218761,51.4008079 20.218761,50.8548609 C20.218761,50.5218146 20.08826,50.2317219 19.911554,49.9783576 C21.694852,46.1928344 25.712893,42.2846755 30.560767,41.3938543 C33.917564,40.8858808 37.617784,41.0352848 40.919009,41.4249801 C41.364209,41.4772715 42.00235,42.5031788 41.9499,42.9451656 C41.896201,43.3871523 41.361087,44.0818808 40.914638,44.0221192" id="Fill-11" fill="#FFFFFF" sketch:type="MSShapeGroup"></path>
        </g>
    </g>
</svg>